Theoretical GC content — gcTheoretical • ngsReports
…
All GC content was calculated using code from
https://github.com/mikelove/fastqcTheoreticalGC using BSgenome packages.
This provides a default set of GC content data for common organisms
generated using 100bp reads/fragments and 1e6 reads.

    See also

    gcAvail

    Examples

## Check which genomes are included
gcAvail(gcTheoretical, "Genome")
#> # A tibble: 24 × 4
#>    Name          Group    Source Version   
#>    <chr>         <chr>    <chr>  <chr>     
#>  1 Alyrata       Plants   JGI    V1.0      
#>  2 Amellifera    Animals  UCSC   apiMel2   
#>  3 Athaliana     Plants   TAIR   Arapot11  
#>  4 Btaurus       Animals  UCSC   bosTau8   
#>  5 Celegans      Animals  UCSC   ce11      
#>  6 Cfamiliaris   Animals  UCSC   canFam3   
#>  7 Dmelanogaster Animals  UCSC   dm6       
#>  8 Drerio        Animals  UCSC   danRer10  
#>  9 Ecoli         Bacteria NCBI   2008/08/05
#> 10 Gaculeatus    Other    UCSC   gasAcu1   
#> # … with 14 more rows
…
