Retrieve a given module from a Fastqc* Object — getModule,FastqcData-method • ngsReports
…
    Examples

# Get the files included with the package
packageDir <- system.file("extdata", package = "ngsReports")
fl <- list.files(packageDir, pattern = "fastqc.zip", full.names = TRUE)

# Load the FASTQC data as a FastqcDataList object
fdl <- FastqcDataList(fl)

# Extract the Summary module, which corresponds to the PASS/WARN/FAIL flags
getModule(fdl, "Summary")
#> # A tibble: 72 × 3
#>    Filename      Status Category                    
#>    <chr>         <chr>  <chr>                       
#>  1 ATTG_R1.fastq PASS   Basic Statistics            
#>  2 ATTG_R1.fastq FAIL   Per base sequence quality   
#>  3 ATTG_R1.fastq WARN   Per tile sequence quality   
#>  4 ATTG_R1.fastq PASS   Per sequence quality scores 
#>  5 ATTG_R1.fastq FAIL   Per base sequence content   
#>  6 ATTG_R1.fastq FAIL   Per sequence GC content     
#>  7 ATTG_R1.fastq PASS   Per base N content          
#>  8 ATTG_R1.fastq PASS   Sequence Length Distribution
#>  9 ATTG_R1.fastq FAIL   Sequence Duplication Levels 
#> 10 ATTG_R1.fastq FAIL   Overrepresented sequences   
#> # ℹ 62 more rows
…
