Summarise Overrepresented Sequences — summariseOverrep • ngsReports
…
## Applying the function to a FastqcDataList
packageDir <- system.file("extdata", package = "ngsReports")
fl <- list.files(packageDir, pattern = "fastqc.zip", full.names = TRUE)
fdl <- FastqcDataList(fl)
summariseOverrep(fdl)
#> # A tibble: 490 × 9
#>    Sequence             Possible_Source n_samples Count_mean Count_sum Count_max
#>    <chr>                <chr>               <int>      <dbl>     <int>     <int>
#>  1 CTGCAATTGGCGGTTCAGC… Illumina Paire…         1        811       811       811
#>  2 CTACAATTGGCGGTTCAGC… Illumina Paire…         1        784       784       784
#>  3 CTTCAATTGGCGGTTCAGC… Illumina Paire…         1        752       752       752
#>  4 CTCCAATTGGCGGTTCAGC… Illumina Paire…         1        744       744       744
#>  5 TCTGGCATTGCGGTTCAGC… Illumina Paire…         1        268       268       268
#>  6 ATCTTGTATTGGATGTGTC… No Hit                  1        203       203       203
#>  7 ATCTTGTATTGGTCAGCTA… No Hit                  1        192       192       192
#>  8 TGAATTGTACTAACATAAC… No Hit                  1        188       188       188
#>  9 CTTCAATTGAGGAATTGCT… No Hit                  1        170       170       170
#> 10 CTCCAATTGTTGGAGAAGT… No Hit                  1        162       162       162
#> # ℹ 480 more rows
#> # ℹ 3 more variables: Percentage_mean <dbl>, Percentage_sum <dbl>,
#> #   Percentage_max <dbl>
…
