An Introduction To ngsReports • ngsReports
…
The class TheoreticalGC

A selection of Theoretical GC content is supplied with the package in
the object gcTheoretical, which has been defined with the
additional S4 class TheoreticalGC. GC content
was calculated using scripts obtained from
https://github.com/mikelove/fastqcTheoreticalGC.
Available genomes and transcriptomes can be obtained using the function
gcAvail() on the object gcTheoretical and
specifying the type.

gcAvail(gcTheoretical, "Genome")

## # A tibble: 24 × 4
##    Name          Group    Source Version   
##    <chr>         <chr>    <chr>  <chr>     
##  1 Alyrata       Plants   JGI    V1.0      
##  2 Amellifera    Animals  UCSC   apiMel2   
##  3 Athaliana     Plants   TAIR   Arapot11  
##  4 Btaurus       Animals  UCSC   bosTau8   
##  5 Celegans      Animals  UCSC   ce11      
##  6 Cfamiliaris   Animals  UCSC   canFam3   
##  7 Dmelanogaster Animals  UCSC   dm6       
##  8 Drerio        Animals  UCSC   danRer10  
##  9 Ecoli         Bacteria NCBI   2008/08/05
## 10 Gaculeatus    Other    UCSC   gasAcu1   
## # ℹ 14 more rows
…
